{
  "next": "http://api.v2.dev.clickasnap.com/feeds/my-feed/?page=2",
  "previous": null,
  "current_page": 1,
  "page_size": 10,
  "total_pages": 12,
  "count": 113,
  "results": [
    {
      "id": 929,
      "user": 9,
      "grouped_images": [],
      "popular_score": "0.000929",
      "name": "Splat",
      "url": "https://rest-api-dev-us-east-1-267041888199.s3.us-east-1.amazonaws.com/ed01bd41-558a-4c8d-943f-dcce8f9e754b/01HZ2A5SPDASRFK96D5NDMMAYW",
      "signed_url": null,
      "thumbnail_url": "https://36ith701bj.execute-api.us-east-1.amazonaws.com/image//0x100/filters:strip_exif()/ed01bd41-558a-4c8d-943f-dcce8f9e754b/01HZ2A5SPDASRFK96D5NDMMAYW",
      "description": "",
      "category": "",
      "mime": null,
      "tags": [],
      "exif": {
        "ISO": "",
        "Lens": "",
        "Make": "",
        "Flash": "",
        "Model": "",
        "Aperture": "",
        "ExposureTime": ""
      },
      "alt_text": "",
      "size": null,
      "extension": null,
      "width": null,
      "height": null,
      "dpi": null,
      "user_verified": false,
      "created_at": "2024-05-29T13:56:07.761124Z",
      "updated_at": "2024-05-29T13:56:07.961580Z",
      "text": null,
      "group_id": "ed01bd41-558a-4c8d-943f-dcce8f9e754b_5/29/2024_13",
      "rating": null,
      "rating_count": 0,
      "dynamo_user_id": "ed01bd41-558a-4c8d-943f-dcce8f9e754b",
      "uploaded_at": "2024-05-29T13:56:01.358000Z",
      "image_hash": null,
      "pinned_comment": null,
      "user_data": {
        "id": 9,
        "username": "ed01bd41-558a-4c8d-943f-dcce8f9e754b",
        "first_name": "",
        "last_name": "",
        "profile": {
          "id": 9,
          "display_name": "",
          "avatar": "https://rest-api-dev-us-east-1-267041888199.s3.us-east-1.amazonaws.com/users/ed01bd41-558a-4c8d-943f-dcce8f9e754b",
          "cas_username": "andy_dev",
          "plan": "pro",
          "created_at": "2024-05-22T09:01:54.250233Z"
        }
      }
    },
    {
      "id": 896,
      "user": 6,
      "grouped_images": [],
      "popular_score": "0.000896",
      "name": "roses",
      "url": "https://rest-api-dev-us-east-1-267041888199.s3.us-east-1.amazonaws.com/67b722f2-f511-490d-adf5-07b4702b0268/01HYZ92WD8DDECER1ZVX3QJSK2",
      "signed_url": null,
      "thumbnail_url": "https://36ith701bj.execute-api.us-east-1.amazonaws.com/image/0x100/filters:strip_exif()/67b722f2-f511-490d-adf5-07b4702b0268/01HYZ92WD8DDECER1ZVX3QJSK2",
      "description": "",
      "category": "",
      "mime": "image/jpeg",
      "tags": [],
      "exif": {
        "ISO": "",
        "Lens": "",
        "Make": "",
        "Flash": "",
        "Model": "",
        "Aperture": "",
        "ExposureTime": ""
      },
      "alt_text": "Four fluffy yellow goslings nestle closely together on their Canada goose parent's brown feathers. Three of the goslings are peeking out curiously, while the fourth one rests its head, partially hidden. The background is blurred, focusing attention o",
      "size": 5870391,
      "extension": null,
      "width": null,
      "height": null,
      "dpi": null,
      "user_verified": true,
      "created_at": "2024-05-28T09:39:20.945724Z",
      "updated_at": "2024-05-28T09:39:21.670557Z",
      "text": null,
      "group_id": "67b722f2-f511-490d-adf5-07b4702b0268_5/28/2024_9",
      "rating": null,
      "rating_count": 0,
      "dynamo_user_id": "67b722f2-f511-490d-adf5-07b4702b0268",
      "uploaded_at": "2024-05-28T09:39:13.960000Z",
      "image_hash": "3ecd623da4aae1e0e51d2f57b5d986f221d34b1259a4d29aa5023e8be93eccd3",
      "pinned_comment": null,
      "user_data": {
        "id": 6,
        "username": "67b722f2-f511-490d-adf5-07b4702b0268",
        "first_name": "",
        "last_name": "",
        "profile": {
          "id": 6,
          "display_name": "",
          "avatar": "https://rest-api-dev-us-east-1-267041888199.s3.us-east-1.amazonaws.com/users/67b722f2-f511-490d-adf5-07b4702b0268",
          "cas_username": "d0nni3",
          "plan": "seller",
          "created_at": "2024-05-21T13:02:16.844039Z"
        }
      }
    },
    {
      "id": 893,
      "user": 6,
      "grouped_images": [],
      "popular_score": "0.000893",
      "name": "Dog",
      "url": "https://rest-api-dev-us-east-1-267041888199.s3.us-east-1.amazonaws.com/67b722f2-f511-490d-adf5-07b4702b0268/01HYN9HGK98VNXCG3H3T8HJ4DE",
      "signed_url": null,
      "thumbnail_url": "https://36ith701bj.execute-api.us-east-1.amazonaws.com/image/0x100/filters:strip_exif()/67b722f2-f511-490d-adf5-07b4702b0268/01HYN9HGK98VNXCG3H3T8HJ4DE",
      "description": "",
      "category": "",
      "mime": "image/jpeg",
      "tags": [],
      "exif": {
        "ISO": "",
        "Lens": "",
        "Make": "samsung",
        "Flash": "Flash did not fire",
        "Model": "SM-G965F",
        "Aperture": "",
        "ExposureTime": "1/195"
      },
      "alt_text": "Four fluffy yellow goslings nestle closely together on their Canada goose parent's brown feathers. Three of the goslings are peeking out curiously, while the fourth one rests its head, partially hidden. The background is blurred, focusing attention o",
      "size": 340576,
      "extension": null,
      "width": null,
      "height": null,
      "dpi": null,
      "user_verified": true,
      "created_at": "2024-05-24T12:34:56.098066Z",
      "updated_at": "2024-05-28T09:37:25.134648Z",
      "text": null,
      "group_id": "67b722f2-f511-490d-adf5-07b4702b0268_5/24/2024_12",
      "rating": null,
      "rating_count": 0,
      "dynamo_user_id": "67b722f2-f511-490d-adf5-07b4702b0268",
      "uploaded_at": "2024-05-24T12:34:49.066000Z",
      "image_hash": "c81c514cabc39958bf5beb538c1af3041d850793cafbe141e4114edab50018ac",
      "pinned_comment": null,
      "user_data": {
        "id": 6,
        "username": "67b722f2-f511-490d-adf5-07b4702b0268",
        "first_name": "",
        "last_name": "",
        "profile": {
          "id": 6,
          "display_name": "",
          "avatar": "https://rest-api-dev-us-east-1-267041888199.s3.us-east-1.amazonaws.com/users/67b722f2-f511-490d-adf5-07b4702b0268",
          "cas_username": "d0nni3",
          "plan": "seller",
          "created_at": "2024-05-21T13:02:16.844039Z"
        }
      }
    },
    {
      "id": 721,
      "user": 9,
      "popular_score": "0.000721",
      "name": "parrot",
      "url": "https://rest-api-dev-us-east-1-267041888199.s3.us-east-1.amazonaws.com/ed01bd41-558a-4c8d-943f-dcce8f9e754b/01HWWCT7NM4ECB1MSFBC2501R8",
      "signed_url": null,
      "thumbnail_url": "https://36ith701bj.execute-api.us-east-1.amazonaws.com/image/0x100/filters:strip_exif()/ed01bd41-558a-4c8d-943f-dcce8f9e754b/01HWWCT7NM4ECB1MSFBC2501R8",
      "description": "",
      "category": "",
      "mime": "image/jpeg",
      "tags": [],
      "exif": {
        "ISO": "",
        "Lens": "",
        "Make": "",
        "Flash": "",
        "Model": "",
        "Aperture": "",
        "ExposureTime": ""
      },
      "alt_text": "",
      "size": 895473,
      "extension": null,
      "width": null,
      "height": null,
      "dpi": null,
      "user_verified": false,
      "created_at": "2024-05-22T09:15:37.664997Z",
      "updated_at": "2024-05-22T09:15:37.665021Z",
      "text": null,
      "group_id": "ed01bd41-558a-4c8d-943f-dcce8f9e754b_5/2/2024_10",
      "rating": null,
      "rating_count": 0,
      "dynamo_user_id": "ed01bd41-558a-4c8d-943f-dcce8f9e754b",
      "uploaded_at": "2024-05-02T10:15:17.942000Z",
      "image_hash": "ec0b3ee4e89ee92d054ee0d175c418b6bb877cba936a3ffa2b47e6a7d6c57118",
      "pinned_comment": null,
      "user_data": {
        "id": 9,
        "username": "ed01bd41-558a-4c8d-943f-dcce8f9e754b",
        "first_name": "",
        "last_name": "",
        "profile": {
          "id": 9,
          "display_name": "",
          "avatar": "https://rest-api-dev-us-east-1-267041888199.s3.us-east-1.amazonaws.com/users/ed01bd41-558a-4c8d-943f-dcce8f9e754b",
          "cas_username": "andy_dev",
          "plan": "pro",
          "created_at": "2024-05-22T09:01:54.250233Z"
        }
      }
    },
    {
      "id": 373,
      "user": 6,
      "grouped_images": [],
      "popular_score": "0.000373",
      "name": "Cave",
      "url": "https://rest-api-dev-us-east-1-267041888199.s3.us-east-1.amazonaws.com/67b722f2-f511-490d-adf5-07b4702b0268/01HF9H2VWNHEGQVR315NMMQ0Q0",
      "signed_url": null,
      "thumbnail_url": "https://36ith701bj.execute-api.us-east-1.amazonaws.com/image/0x100/filters:strip_exif()/67b722f2-f511-490d-adf5-07b4702b0268/01HF9H2VWNHEGQVR315NMMQ0Q0",
      "description": "",
      "category": "",
      "mime": "image/png",
      "tags": [],
      "exif": {
        "ISO": "5000",
        "Lens": "",
        "Make": "samsung",
        "Flash": "Flash did not fire",
        "Model": "SM-G981V",
        "Aperture": "9/5",
        "ExposureTime": "1/10"
      },
      "alt_text": "",
      "size": 1091240,
      "extension": null,
      "width": null,
      "height": null,
      "dpi": null,
      "user_verified": true,
      "created_at": "2024-05-21T13:04:26.962253Z",
      "updated_at": "2024-05-21T13:04:26.962278Z",
      "text": null,
      "group_id": "67b722f2-f511-490d-adf5-07b4702b0268_11/15/2023_13",
      "rating": "3",
      "rating_count": 2,
      "dynamo_user_id": "67b722f2-f511-490d-adf5-07b4702b0268",
      "uploaded_at": "2023-11-15T13:00:17.174000Z",
      "image_hash": "ccf127a103c72a4c8676a841184975e18ea0b91b76787a9bafc3db1ab69db6fe",
      "pinned_comment": null,
      "user_data": {
        "id": 6,
        "username": "67b722f2-f511-490d-adf5-07b4702b0268",
        "first_name": "",
        "last_name": "",
        "profile": {
          "id": 6,
          "display_name": "",
          "avatar": "https://rest-api-dev-us-east-1-267041888199.s3.us-east-1.amazonaws.com/users/67b722f2-f511-490d-adf5-07b4702b0268",
          "cas_username": "d0nni3",
          "plan": "seller",
          "created_at": "2024-05-21T13:02:16.844039Z"
        }
      }
    },
    {
      "id": 870,
      "user": 5,
      "popular_score": "0.500870",
      "name": "Bridge",
      "url": "https://rest-api-dev-us-east-1-267041888199.s3.us-east-1.amazonaws.com/2ebf2c46-56b4-4bfd-b09a-7079404abba9/01HYGFA757EYJ8AVMV8HMV6SW3",
      "signed_url": null,
      "thumbnail_url": "https://36ith701bj.execute-api.us-east-1.amazonaws.com/image//0x100/filters:strip_exif()/2ebf2c46-56b4-4bfd-b09a-7079404abba9/01HYGFA757EYJ8AVMV8HMV6SW3",
      "description": "",
      "category": "",
      "mime": "image/jpeg",
      "tags": [],
      "exif": {
        "ISO": "",
        "Lens": "",
        "Make": "",
        "Flash": "",
        "Model": "",
        "Aperture": "",
        "ExposureTime": ""
      },
      "alt_text": "",
      "size": 1374159,
      "extension": null,
      "width": null,
      "height": null,
      "dpi": null,
      "user_verified": false,
      "created_at": "2024-05-22T15:39:58.572082Z",
      "updated_at": "2024-05-29T16:01:36.936394Z",
      "text": null,
      "group_id": "2ebf2c46-56b4-4bfd-b09a-7079404abba9_5/22/2024_15",
      "rating": "5.00",
      "rating_count": 1,
      "dynamo_user_id": "2ebf2c46-56b4-4bfd-b09a-7079404abba9",
      "uploaded_at": "2024-05-22T15:39:29.320000Z",
      "image_hash": "de7a7196fa92875ee1b77a95713d82dfe51aac8a62a933457e8dbfd96f9a1076",
      "pinned_comment": null,
      "user_data": {
        "id": 5,
        "username": "2ebf2c46-56b4-4bfd-b09a-7079404abba9",
        "first_name": "",
        "last_name": "",
        "profile": {
          "id": 5,
          "display_name": "",
          "avatar": "https://rest-api-dev-us-east-1-267041888199.s3.us-east-1.amazonaws.com/users/2ebf2c46-56b4-4bfd-b09a-7079404abba9",
          "cas_username": "lewiscodes",
          "plan": "pro",
          "created_at": "2024-05-21T12:58:26.156584Z"
        }
      }
    },

    {
      "id": 50,
      "user": 6,
      "popular_score": "0.00050",
      "name": "Rabbito",
      "url": "https://rest-api-dev-us-east-1-267041888199.s3.us-east-1.amazonaws.com/67b722f2-f511-490d-adf5-07b4702b0268/01HWSKYXERGDQP516R703ZF18A",
      "signed_url": null,
      "thumbnail_url": "https://36ith701bj.execute-api.us-east-1.amazonaws.com/image/0x100/filters:strip_exif()/67b722f2-f511-490d-adf5-07b4702b0268/01HWSKYXERGDQP516R703ZF18A",
      "description": "",
      "category": "",
      "mime": "image/jpeg",
      "tags": [],
      "exif": {
        "ISO": "",
        "Lens": "",
        "Make": "NIKON",
        "Flash": "Flash did not fire, compulsory flash mode",
        "Model": "COOLPIX P900",
        "Aperture": "",
        "ExposureTime": "10/4000"
      },
      "alt_text": "",
      "size": 45394,
      "extension": null,
      "width": null,
      "height": null,
      "dpi": null,
      "user_verified": true,
      "created_at": "2024-05-21T13:04:20.085137Z",
      "updated_at": "2024-05-21T13:04:20.085154Z",
      "text": null,
      "group_id": "67b722f2-f511-490d-adf5-07b4702b0268_5/1/2024_8",
      "rating": null,
      "rating_count": 0,
      "dynamo_user_id": "67b722f2-f511-490d-adf5-07b4702b0268",
      "uploaded_at": "2024-05-01T08:22:28.057000Z",
      "image_hash": "08a8b4a265ded0cb8e78cda86ff195d8ab569a1e58a0a6071fb3e65775cded4a",
      "pinned_comment": null,
      "user_data": {
        "id": 6,
        "username": "67b722f2-f511-490d-adf5-07b4702b0268",
        "first_name": "",
        "last_name": "",
        "profile": {
          "id": 6,
          "display_name": "",
          "avatar": "https://rest-api-dev-us-east-1-267041888199.s3.us-east-1.amazonaws.com/users/67b722f2-f511-490d-adf5-07b4702b0268",
          "cas_username": "d0nni3",
          "plan": "seller",
          "created_at": "2024-05-21T13:02:16.844039Z"
        }
      }
    },
    {
      "id": 728,
      "user": 9,
      "popular_score": "0.000728",
      "name": "robin",
      "url": "https://rest-api-dev-us-east-1-267041888199.s3.us-east-1.amazonaws.com/ed01bd41-558a-4c8d-943f-dcce8f9e754b/01HWQRSQB3CF0XGKRPTBWX3T04",
      "signed_url": null,
      "thumbnail_url": "https://36ith701bj.execute-api.us-east-1.amazonaws.com/image/0x100/filters:strip_exif()/ed01bd41-558a-4c8d-943f-dcce8f9e754b/01HWQRSQB3CF0XGKRPTBWX3T04",
      "description": "",
      "category": "",
      "mime": "image/jpeg",
      "tags": [],
      "exif": {
        "ISO": "",
        "Lens": "",
        "Make": "",
        "Flash": "",
        "Model": "",
        "Aperture": "",
        "ExposureTime": ""
      },
      "alt_text": "",
      "size": 1551368,
      "extension": null,
      "width": null,
      "height": null,
      "dpi": null,
      "user_verified": false,
      "created_at": "2024-05-22T09:15:37.956297Z",
      "updated_at": "2024-05-22T09:15:37.956313Z",
      "text": null,
      "group_id": "ed01bd41-558a-4c8d-943f-dcce8f9e754b_4/30/2024_15",
      "rating": null,
      "rating_count": 0,
      "dynamo_user_id": "ed01bd41-558a-4c8d-943f-dcce8f9e754b",
      "uploaded_at": "2024-04-30T15:08:31.972000Z",
      "image_hash": "7ca187e401756f7d1c35c874c3343904d8a9852bbc4e099e793124c66e7fbeba",
      "pinned_comment": null,
      "user_data": {
        "id": 9,
        "username": "ed01bd41-558a-4c8d-943f-dcce8f9e754b",
        "first_name": "",
        "last_name": "",
        "profile": {
          "id": 9,
          "display_name": "",
          "avatar": "https://rest-api-dev-us-east-1-267041888199.s3.us-east-1.amazonaws.com/users/ed01bd41-558a-4c8d-943f-dcce8f9e754b",
          "cas_username": "andy_dev",
          "plan": "pro",
          "created_at": "2024-05-22T09:01:54.250233Z"
        }
      }
    }
  ]
}
